{
    "page": 2,
    "per_page": 3,
    "total": 12,
    "total_pages": 4,
    "data": [
        {
            "id": 4,
            "email": "eve.holt@reqres.in",
            "first_name": "Eve",
            "last_name": "Holt",
            
        },
        {
            "id": 5,
            "email": "charles.morris@reqres.in",
            "first_name": "Charles",
            "last_name": "Morris",
           
        },
        {
            "id": 6,
            "email": "tracey.ramos@reqres.in",
            "first_name": "Tracey",
            "last_name": "Ramos",
          
        }
   	 ],
   "empid": 108888,
   "names": [
      			 {
           
            		 "firstName": "Lokesh",
            		 "lastName": "Gupta",
            		 "web": "om"
		
        	
     			 },
		
			{
       
         		   "firstName": "Brian",
            		   "lastName": "Schultz",
           		   "web": "om"
        
  			}
	     ]
}